0
9
53 13 . 0
35 14 . 0
25 6 . 0
20 6 . 0
2 12 . 0
3 25 . 0
1 27 . 0
32 31 . 0
16 37 . 0
80 41
; 18 ; 18 ; 18 ; 18 ; 18 ; 18 ; 18 ; 18 ; 18 ; 18 ; 18 ; 18 ; 18 ; 18 ; 18 ; 18 ; 18 ; 18 ; 18 ; 18 ; 18 ; 18 ; 18 ; 18 ; 18 ; 18 ; 18 ; 18 ; 18 ; 18 ; 18 ; 18 ; 18 ; 18 ; 18 ; 18 ; 18 ; 18 ; 18 ; 18 ; 18 ; 18 ; 18 ; 18 ; 18 ; 18 ; 18 ; 18 ; 18 ; 18 ; 18 ; 18 ; 18 ; 18 ; 18 ; 18 ; 18 ; 18 ; 18 ; 18 ; 18 ; 18 ; 18 ; 18 ; 18 ; 18 ; 18 ; 18 ; 18 ; 18 ; 18 ; 18 ; 18 ; 18 ; 18 ; 18 ; 18 ; 18 ; 18 ; 18
; 19 ; 19 ; 19 ; 19 ; 19 ; 19 ; 19 ; 19 ; 19 ; 19 ; 19 ; 19 ; 19 ; 19 ; 19 ; 19 ; 19 ; 19 ; 19 ; 19 ; 19 ; 19 ; 19 ; 19 ; 19 ; 19 ; 19 ; 19 ; 19 ; 19 ; 19 ; 19 ; 19 ; 19 ; 19 ; 19 ; 19 ; 19 ; 19 ; 19 ; 19 ; 19 ; 19 ; 19 ; 19 ; 19 ; 19 ; 19 ; 19 ; 19 ; 19 ; 19 ; 19 ; 19 ; 19 ; 19 ; 19 ; 19 ; 19 ; 19 ; 19 ; 19 ; 19 ; 19 ; 19 ; 19 ; 19 ; 19 ; 19 ; 19 ; 19 ; 19 ; 19 ; 19 ; 19 ; 19 ; 19 ; 19 ; 19 ; 19
. 16 . 16 # 17 . 16 # 17 . 16 . 16 . 16 . 16 . 16 . 16 . 16 . 16 . 16 . 16 . 16 . 16 . 16 . 16 . 16 . 16 . 16 . 16 . 16 . 16 # 17 . 16 . 16 . 16 . 16 . 16 . 16 . 16 . 16 . 16 . 16 . 16 . 16 . 16 . 16 . 16 . 16 # 17 . 16 # 17 # 17 # 17 # 17 . 16 . 16 . 16 . 16 . 16 . 16 . 16 . 16 . 16 . 16 . 16 . 16 . 16 # 17 . 16 . 16 . 16 . 16 . 16 . 16 . 16 . 16 . 16 . 16 . 16 . 16 # 17 # 17 . 16 # 17 # 17 . 16
. 16 # 17 # 17 # 17 . 16 . 16 . 16 . 16 . 16 . 16 . 16 . 16 . 16 . 16 . 16 . 16 # 17 . 16 . 16 . 16 . 16 . 16 . 16 . 16 . 16 . 16 . 16 . 16 . 16 . 16 . 16 . 16 # 17 . 16 . 16 . 16 . 16 . 16 . 16 . 16 . 16 . 16 . 16 . 16 # 17 # 17 . 16 . 16 . 16 . 16 . 16 # 17 . 16 . 16 . 16 . 16 . 16 . 16 . 16 . 16 . 16 . 16 . 16 . 16 . 16 . 16 # 17 . 16 . 16 . 16 . 16 . 16 . 16 . 16 . 16 # 17 # 17 # 17 # 17 . 16
. 58 . 58 ; 78 . 58 . 58 . 58 . 58 . 58 . 58 . 58 . 58 . 58 . 58 . 58 . 58 . 58 . 58 . 58 . 58 . 58 . 58 . 58 . 58 . 58 . 58 . 58 . 58 . 58 . 58 . 58 . 58 . 58 . 58 . 58 . 58 . 58 . 58 . 58 . 58 . 58 . 58 . 58 . 58 . 58 . 58 ; 78 . 58 . 58 . 58 . 58 . 58 . 58 . 58 . 58 . 58 . 58 . 58 . 58 . 58 . 58 . 58 . 58 . 58 . 58 . 58 . 58 . 58 . 58 . 58 . 58 . 58 . 58 . 58 . 58 . 58 . 58 ; 78 . 58 . 58 . 58
. 59 . 59 ; 79 . 59 . 59 . 59 . 59 . 59 . 59 . 59 . 59 . 59 . 59 . 59 . 59 . 59 . 59 . 59 . 59 . 59 . 59 . 59 . 59 . 59 . 59 . 59 . 59 . 59 . 59 . 59 . 59 . 59 . 59 . 59 . 59 . 59 . 59 . 59 . 59 . 59 . 59 . 59 . 59 . 59 . 59 ; 79 . 59 . 59 . 59 . 59 . 59 . 59 . 59 . 59 . 59 . 59 . 59 . 59 . 74 . 73 . 59 . 59 . 59 . 59 . 59 . 59 . 59 . 59 . 59 . 59 . 59 . 59 . 59 . 59 . 59 . 59 ; 79 . 59 . 59 . 59
# 36 # 36 # 36 # 37 . 00 . 00 . 00 # 54 # 52 # 52 # 52 # 52 # 52 # 52 # 52 # 52 # 52 # 53 . 00 . 00 + 20 . 00 ~ 02 ~ 02 . 00 + 20 . 00 ~ 02 # 54 # 52 # 52 # 52 # 52 # 52 # 52 # 52 # 52 # 53 ~ 02 . 00 . 00 ! 01 # 54 # 52 # 52 # 52 # 53 . 00 ~ 02 . 00 . 00 . 00 . 00 ~ 02 . 00 . 00 ! 01 . 00 . 57 . 56 . 00 . 00 . 00 . 00 . 00 ~ 02 . 00 . 00 . 00 . 00 . 00 ; 03 . 00 . 00 . 00 ; 05 ; 04 # 38 # 36 # 37
# 51 # 51 # 51 # 35 . 00 ~ 02 ~ 02 # 55 # 71 # 71 # 71 # 71 # 71 # 71 # 71 # 71 # 71 # 67 . 00 ~ 02 . 00 . 00 . 00 ; 05 . 00 . 00 ~ 02 . 00 # 55 # 71 # 71 # 71 # 71 # 71 # 71 # 71 # 71 # 67 ~ 02 . 00 . 00 . 00 # 55 # 71 # 71 # 71 # 67 . 00 . 00 . 00 ! 01 . 00 . 00 . 00 . 00 . 00 . 00 ; 03 . 57 . 56 . 00 . 00 ~ 02 . 00 . 00 . 00 . 00 . 00 . 00 . 00 . 00 . 00 # 54 # 52 # 52 # 52 # 53 # 39 # 51 # 35
# 51 # 51 # 51 # 35 ! 01 ~ 02 . 00 # 55 # 71 # 71 # 71 # 71 # 71 # 71 # 71 # 71 # 71 # 67 # 38 # 36 # 36 # 36 # 36 # 36 # 36 # 36 # 36 # 37 # 55 # 71 # 71 # 71 # 71 # 71 # 71 # 71 # 71 # 67 . 00 . 00 . 00 . 00 # 55 # 71 # 71 # 71 # 67 ! 01 . 00 ~ 02 ~ 02 . 00 . 00 . 00 . 00 ; 04 . 00 . 00 . 57 . 56 # 38 # 36 # 36 # 36 # 36 # 37 . 00 ; 04 ; 05 ; 05 ; 04 . 00 # 55 # 71 # 71 # 71 # 67 # 39 # 51 # 35
# 51 # 51 # 51 # 35 ; 05 . 00 ! 01 # 66 # 64 # 64 # 64 # 64 # 64 # 64 # 64 # 64 # 64 # 65 # 39 # 51 # 51 # 51 # 51 # 51 # 51 # 51 # 51 # 35 # 66 # 64 # 64 # 64 # 64 # 64 # 64 # 64 # 64 # 65 ! 01 . 00 . 00 . 00 # 55 # 71 # 71 # 71 # 67 # 38 # 36 # 36 # 36 # 37 . 00 . 00 ; 05 ; 04 . 00 . 00 . 57 . 56 # 39 # 51 # 51 # 51 # 51 # 35 ; 05 . 00 ~ 02 . 00 ; 04 ; 05 # 55 # 71 # 71 # 71 # 67 # 39 # 51 # 35
# 32 # 32 # 32 # 33 ~ 02 . 00 . 00 # 70 # 68 # 68 # 68 # 68 # 68 # 68 # 68 # 68 # 68 # 69 # 39 # 51 # 51 # 51 # 51 # 51 # 51 # 51 # 51 # 35 # 70 # 68 # 68 # 68 # 68 # 68 # 68 # 68 # 68 # 69 . 00 . 00 ~ 02 . 00 # 55 # 71 # 71 # 71 # 67 # 39 # 51 # 51 # 51 # 35 ; 04 . 00 . 00 ; 05 ; 05 . 00 . 57 . 56 # 39 # 51 # 51 # 51 # 51 # 35 . 00 . 00 . 00 ~ 02 . 00 ; 04 # 55 # 71 # 71 # 71 # 67 # 34 # 32 # 33
# 48 # 48 # 48 # 49 . 00 . 00 . 00 . 00 . 00 . 00 . 00 . 00 ! 01 . 00 ~ 02 . 00 . 00 . 00 # 34 # 32 # 32 # 32 # 32 # 32 # 32 # 32 # 32 # 33 . 00 . 00 . 00 ! 01 . 00 . 00 . 00 . 00 . 00 ! 01 . 00 . 00 . 00 . 00 # 66 # 64 # 64 # 64 # 65 # 39 # 51 # 51 # 51 # 35 . 00 . 00 ~ 02 . 00 ; 04 . 00 . 57 . 56 # 34 # 32 # 32 # 32 # 32 # 33 . 00 . 00 . 00 . 00 . 00 . 00 # 55 # 71 # 71 # 71 # 67 ~ 02 . 00 . 00
; 05 ; 04 + 20 . 00 . 00 . 00 . 00 . 00 . 00 . 00 . 00 . 00 . 00 . 00 . 00 . 00 . 00 ~ 02 . 00 . 00 . 00 ~ 02 . 00 . 00 . 00 # 38 # 36 # 37 . 00 ! 01 ~ 02 . 00 ~ 02 . 00 . 00 . 00 . 00 . 00 . 00 . 00 ~ 02 ~ 02 . 00 . 00 ! 01 . 00 . 00 # 39 # 51 # 51 # 51 # 35 . 00 . 00 . 00 ~ 02 . 00 ; 05 . 57 . 56 # 39 # 51 # 51 # 51 # 51 # 35 . 00 . 00 . 00 . 00 . 00 ! 01 # 55 # 71 # 71 # 71 # 67 . 00 . 00 . 00
; 05 . 00 . 00 ~ 02 . 00 . 00 ~ 02 ~ 02 . 00 ~ 02 . 16 . 16 . 16 . 16 . 16 . 16 . 00 . 00 ! 01 . 00 . 00 ~ 02 . 00 . 00 . 00 # 39 # 51 # 35 . 00 . 00 . 00 . 00 ~ 02 . 00 ; 04 . 00 . 00 . 00 ~ 02 . 00 . 00 . 00 ~ 02 . 00 . 00 . 00 ~ 02 # 39 # 51 # 51 # 51 # 35 . 00 + 20 . 00 . 00 . 00 ; 04 . 57 . 56 # 39 # 51 # 51 # 51 # 51 # 35 ! 01 . 00 . 00 ~ 02 . 00 ! 01 # 55 # 71 # 71 # 71 # 67 # 54 # 52 # 52
# 52 # 53 . 00 ~ 02 . 00 . 00 . 00 . 00 . 00 ~ 02 # 17 . 16 . 16 # 17 . 16 . 16 . 16 . 16 . 16 # 17 . 16 . 16 . 00 ~ 02 . 00 # 39 # 51 # 35 ! 01 . 00 . 00 ; 04 . 00 ; 05 . 00 + 20 . 00 . 00 . 00 . 00 . 00 . 00 . 00 . 00 . 00 . 00 ~ 02 # 39 # 51 # 51 # 51 # 35 ; 04 . 00 . 00 ; 04 ; 05 . 00 . 57 . 56 # 39 # 51 # 51 # 51 # 51 # 35 . 00 ! 01 . 00 . 00 . 00 . 00 # 55 # 71 # 71 # 71 # 67 # 55 # 71 # 71
# 71 # 67 ~ 02 ~ 02 ! 01 . 00 . 00 . 00 . 00 . 00 . 16 . 16 . 16 . 16 . 16 . 16 # 17 . 16 # 17 . 16 . 16 . 16 . 00 . 00 . 00 # 34 # 32 # 33 ! 01 . 00 . 00 . 00 . 00 . 00 . 00 . 00 . 00 . 00 . 00 . 00 . 00 . 00 ~ 02 . 00 . 00 . 00 . 00 # 39 # 51 # 51 # 51 # 35 ; 05 ; 05 ; 05 ; 05 ; 05 . 00 . 57 . 56 # 34 # 32 # 32 # 32 # 32 # 33 . 00 ! 01 . 00 . 00 . 00 . 00 # 66 # 64 # 64 # 64 # 65 # 66 # 64 # 64
# 71 # 67 . 00 . 00 . 00 . 00 . 00 . 00 . 00 . 00 . 00 . 00 . 00 . 00 . 00 . 00 . 00 . 00 . 00 . 00 . 00 . 00 . 00 . 00 . 00 . 00 ~ 02 . 00 . 00 . 00 . 00 ~ 02 ! 01 . 00 . 00 . 00 . 00 . 00 ~ 02 . 00 . 00 . 00 . 00 ~ 02 . 00 ! 01 ! 01 # 34 # 32 # 32 # 32 # 33 . 00 ; 05 ; 04 ! 01 . 00 . 00 . 57 . 56 # 50 # 48 # 48 # 48 # 48 # 49 . 00 . 00 ! 01 ! 01 . 00 . 00 # 70 # 68 # 68 # 68 # 69 . 00 . 00 . 00
# 71 # 67 . 00 . 00 . 00 . 00 . 00 ~ 02 . 00 . 00 . 00 . 00 . 00 . 00 . 00 . 00 . 00 . 00 . 00 . 00 . 00 ! 01 . 00 ; 05 ; 04 . 00 ~ 02 . 00 ~ 02 . 00 . 00 . 00 . 00 ! 01 . 00 . 00 . 00 . 00 ~ 02 . 00 . 00 . 00 . 00 . 00 . 00 ! 01 . 00 # 50 # 48 # 48 # 48 # 49 . 00 ; 03 . 00 . 00 . 00 . 00 . 57 . 56 # 50 # 48 # 48 # 48 # 48 # 49 . 00 . 00 . 00 . 00 . 00 ~ 02 . 00 . 00 . 00 . 00 . 00 . 00 . 00 . 00
# 71 # 67 . 00 ~ 02 . 00 . 00 . 00 ! 01 ! 01 . 00 ~ 02 . 00 . 00 . 00 ; 04 ; 04 ; 05 . 00 . 00 . 00 . 00 ! 01 . 00 ; 05 . 63 . 58 . 58 . 58 . 58 . 58 . 58 . 58 . 58 . 58 . 58 . 58 . 58 . 58 . 58 . 58 . 58 . 58 . 58 . 58 . 58 . 58 . 58 . 58 . 58 . 58 ; 78 . 58 . 58 . 58 . 58 . 58 . 58 . 58 . 75 . 56 . 00 . 00 . 00 ; 04 ; 05 . 00 . 00 . 00 . 00 . 00 . 00 . 00 . 00 . 00 ~ 02 . 00 . 00 . 00 ~ 02 . 00
# 64 # 65 ! 01 . 00 . 00 . 00 . 00 ! 01 . 00 . 00 . 00 . 00 . 00 ; 04 ; 05 . 00 . 00 . 00 . 00 . 00 ; 04 ; 05 ; 04 . 00 . 57 . 73 . 59 . 59 . 59 . 59 . 59 . 59 . 59 . 59 . 59 . 59 . 59 . 59 . 59 . 59 . 59 . 59 . 59 . 59 . 59 . 59 . 59 . 59 . 59 . 59 ; 79 . 59 . 59 . 59 . 59 . 59 . 59 . 59 . 74 . 56 . 00 . 00 . 00 . 00 ; 05 ; 04 . 00 . 00 . 00 . 00 . 00 . 00 . 00 . 00 . 00 . 00 . 00 . 00 . 00 . 00
. 00 ; 04 . 00 . 00 . 00 . 00 ! 01 ~ 02 . 00 . 00 . 63 . 58 . 58 . 58 . 58 . 58 . 58 . 58 . 58 . 58 . 58 . 58 . 58 . 58 . 75 . 56 . 00 . 00 ~ 02 . 00 . 00 . 00 . 00 ! 01 . 00 . 00 . 00 ~ 02 . 00 . 00 . 00 . 00 . 00 . 00 . 00 . 00 ~ 02 . 00 # 54 # 52 # 52 # 52 # 52 # 53 . 00 . 00 . 00 . 00 . 57 . 72 . 58 . 58 . 58 . 58 ; 78 . 58 . 58 . 58 . 58 . 58 . 58 . 58 . 58 . 58 . 58 . 58 . 58 . 58 . 58 . 58
. 00 ; 04 . 00 ; 05 . 00 ~ 02 . 00 ! 01 . 00 . 00 . 57 . 73 . 59 . 59 . 59 . 59 . 59 . 59 . 59 . 59 . 59 . 59 . 59 . 59 . 59 . 61 . 00 ~ 02 . 00 ~ 02 . 00 . 00 . 00 . 00 . 00 . 00 . 00 # 54 # 52 # 52 # 52 # 52 # 52 # 52 # 52 # 53 . 00 ~ 02 # 55 # 71 # 71 # 71 # 71 # 67 . 00 . 00 . 00 . 00 . 62 . 59 . 59 . 59 . 59 . 59 ; 79 . 59 . 59 . 59 . 59 . 59 . 59 . 59 . 59 . 59 . 59 . 59 . 59 . 59 . 59 . 59
. 00 ; 05 . 00 . 00 # 38 # 36 # 37 . 00 . 00 . 00 . 57 . 56 . 00 ~ 02 . 00 . 00 . 00 . 00 ~ 02 . 00 ! 01 . 00 . 00 ; 04 . 00 . 00 . 00 . 00 . 00 . 00 . 00 . 00 ! 01 . 00 . 00 ~ 02 . 00 # 55 # 71 # 71 # 71 # 71 # 71 # 71 # 71 # 67 . 00 ~ 02 # 55 # 71 # 71 # 71 # 71 # 67 ! 01 . 00 . 00 . 00 . 00 . 00 # 38 # 36 # 36 # 36 # 36 # 36 # 36 # 37 . 00 . 00 . 00 . 00 . 00 . 00 ! 01 . 00 . 00 . 00 . 00 . 00
; 05 ; 04 ~ 02 . 00 # 39 # 51 # 35 . 00 . 00 . 00 . 57 . 56 . 00 . 00 . 00 . 00 . 00 ~ 02 ~ 02 . 00 . 00 . 00 ; 04 ; 05 . 00 . 00 . 00 ! 01 . 00 . 00 . 00 ~ 02 . 00 . 00 . 00 ! 01 . 00 # 55 # 71 # 71 # 71 # 71 # 71 # 71 # 71 # 67 . 00 . 00 # 66 # 64 # 64 # 64 # 64 # 65 ; 04 ; 04 . 00 ~ 02 ~ 02 ~ 02 # 39 # 51 # 51 # 51 # 51 # 51 # 51 # 35 ! 01 ! 01 ! 01 . 00 ! 01 . 00 . 00 . 00 . 00 . 00 . 00 . 00
. 00 ; 05 . 00 ~ 02 # 39 # 51 # 35 . 00 . 00 ! 01 . 57 . 56 . 00 . 00 ! 01 ; 05 ; 05 . 00 ~ 02 . 00 ~ 02 . 00 # 17 . 16 . 16 # 17 . 16 . 16 # 38 # 36 # 36 # 36 # 36 # 36 # 36 # 36 # 37 # 66 # 64 # 64 # 64 # 64 # 64 # 64 # 64 # 65 ~ 02 ~ 02 # 55 # 71 # 71 # 71 # 71 # 67 ; 04 . 00 . 00 ~ 02 . 00 . 00 # 39 # 51 # 51 # 51 # 51 # 51 # 51 # 35 . 00 ! 01 . 00 . 00 . 00 ! 01 . 00 . 00 . 00 . 00 . 00 . 00
. 00 ; 04 ; 05 + 20 # 39 # 51 # 35 ~ 02 . 00 ~ 02 . 57 . 56 . 00 ; 05 ; 04 ; 04 ; 04 ; 05 ; 04 . 00 . 00 . 00 . 16 # 17 # 17 . 16 . 16 # 17 # 39 # 51 # 51 # 51 # 51 # 51 # 51 # 51 # 35 . 00 . 00 ; 04 . 00 . 00 . 00 ~ 02 . 00 . 00 . 00 . 00 # 55 # 71 # 71 # 71 # 71 # 67 . 00 ~ 02 . 00 . 00 . 00 ! 01 # 39 # 51 # 51 # 51 # 51 # 51 # 51 # 35 . 00 . 00 ! 01 . 00 . 00 . 00 . 00 . 00 . 00 . 00 . 00 . 00
; 04 ; 04 ; 04 ; 04 # 39 # 51 # 35 . 00 . 00 ~ 02 . 57 . 56 . 00 . 00 ; 05 . 00 . 00 . 00 # 54 # 52 # 52 # 52 # 52 # 53 . 16 # 17 # 17 # 17 # 39 # 51 # 51 # 51 # 51 # 51 # 51 # 51 # 35 . 00 ~ 02 . 00 . 00 . 00 . 00 ~ 02 . 00 . 00 . 00 . 00 # 55 # 71 # 71 # 71 # 71 # 67 . 00 . 00 . 00 . 00 . 00 . 00 # 34 # 32 # 32 # 32 # 32 # 32 # 32 # 33 . 00 . 00 . 00 . 00 . 00 . 16 . 16 . 16 . 16 . 16 . 00 . 00
; 05 + 20 ; 05 ; 04 # 34 # 32 # 33 ! 01 . 00 . 00 . 57 . 56 . 00 ; 04 . 00 . 00 . 00 * 23 # 55 # 71 # 71 # 71 # 71 # 67 . 00 ~ 02 . 00 . 00 # 34 # 32 # 32 # 32 # 32 # 32 # 32 # 32 # 33 ; 05 ~ 02 . 00 . 00 . 00 . 00 . 00 ! 01 . 00 . 00 ~ 02 # 66 # 64 # 64 # 64 # 64 # 65 . 00 . 00 . 00 . 00 ~ 02 . 00 . 00 . 00 ; 04 . 00 . 00 . 00 . 00 . 00 . 00 . 00 . 00 . 16 . 16 . 16 . 16 . 16 # 17 . 16 . 16 . 00
; 04 . 00 . 00 . 00 . 00 . 00 . 00 ! 01 ~ 02 . 00 . 57 . 56 . 00 . 00 . 00 ~ 02 . 00 . 00 # 55 # 71 # 71 # 71 # 71 # 67 . 00 . 00 . 00 . 00 # 50 # 48 # 48 # 48 # 48 # 48 # 48 # 48 # 49 . 00 . 00 . 00 ~ 02 . 00 . 00 . 00 . 00 . 00 ~ 02 . 00 # 70 # 68 # 68 # 68 # 68 # 69 . 00 . 00 ~ 02 . 00 . 00 . 00 ; 04 ; 05 ! 01 . 00 . 00 . 00 . 00 . 00 . 00 . 16 . 16 . 16 . 16 . 16 . 16 . 16 . 16 . 16 . 16 . 16
; 04 # 54 # 52 # 52 # 53 ! 01 . 00 . 00 ~ 02 . 00 . 57 . 56 ~ 02 . 00 ; 05 . 00 . 00 . 00 # 55 # 71 # 71 # 71 # 71 # 67 . 00 . 00 . 00 . 00 ; 05 . 00 . 00 . 00 . 00 . 00 ; 04 . 00 . 00 . 00 . 00 . 00 . 00 ! 01 # 38 # 36 # 36 # 36 # 36 # 36 # 36 # 36 # 36 # 37 ~ 02 ! 01 . 00 . 00 . 00 . 00 . 00 ; 04 ; 05 ; 04 . 00 . 00 . 00 . 00 . 00 . 00 . 00 . 16 . 16 . 16 # 17 . 16 . 16 . 16 # 17 . 16 . 16 . 16
. 00 # 55 # 71 # 71 # 67 . 00 . 00 ~ 02 . 00 . 00 . 57 . 56 . 00 . 00 ; 04 ; 04 . 00 ! 01 # 55 # 71 # 71 # 71 # 71 # 67 ! 01 . 00 . 00 ~ 02 ; 04 ; 04 ~ 02 ~ 02 . 00 . 00 . 00 . 00 . 00 . 00 ! 01 . 00 ! 01 . 00 # 39 # 51 # 51 # 51 # 51 # 51 # 51 # 51 # 51 # 35 ~ 02 . 00 . 00 . 00 . 00 . 00 . 00 # 54 # 52 # 52 # 52 # 52 # 52 # 53 . 00 ~ 02 ~ 02 . 16 . 16 . 16 . 16 . 16 . 16 . 16 . 16 . 16 # 17 . 16
. 00 # 55 # 71 # 71 # 67 ~ 02 . 00 . 00 . 00 . 00 . 57 . 56 . 00 . 00 . 00 ; 05 . 00 ~ 02 # 55 # 71 # 71 # 71 # 71 # 67 # 54 # 52 # 53 ~ 02 ; 04 ; 05 ~ 02 . 00 + 20 . 00 . 00 . 00 . 00 . 00 . 00 . 00 ! 01 ! 01 # 34 # 32 # 32 # 32 # 32 # 32 # 32 # 32 # 32 # 33 . 00 . 00 . 00 . 00 . 00 . 00 . 00 # 55 # 71 # 71 # 71 # 71 # 71 # 67 . 00 . 00 . 00 . 16 . 16 . 16 . 16 . 16 . 16 . 16 . 16 . 16 . 16 . 16
~ 02 # 55 # 71 # 71 # 67 . 00 . 00 . 00 . 00 ~ 02 . 57 . 56 . 00 . 00 . 00 . 00 . 00 ! 01 # 55 # 71 # 71 # 71 # 71 # 67 # 55 # 71 # 67 . 00 . 00 ; 04 . 00 . 00 . 00 . 00 ~ 02 . 00 . 00 . 00 ! 01 . 00 ! 01 . 00 . 00 . 00 . 00 . 00 . 00 . 00 ~ 02 ! 01 . 00 . 00 ; 04 . 00 . 00 . 00 . 00 . 00 . 00 # 55 # 71 # 71 # 71 # 71 # 71 # 67 . 00 . 00 ~ 02 . 16 . 16 . 16 . 16 . 16 . 16 . 16 . 16 . 16 # 17 . 16
. 00 # 55 # 71 # 71 # 67 . 00 . 00 ; 05 . 00 . 00 . 57 . 56 ; 05 ; 04 . 00 . 00 . 00 . 00 # 55 # 71 # 71 # 71 # 71 # 67 # 66 # 64 # 65 ; 04 ; 05 ; 04 . 00 ; 04 . 00 . 00 . 00 . 00 . 00 . 00 . 00 . 00 . 00 . 00 . 00 . 00 . 00 . 00 . 00 . 00 . 00 ~ 02 . 00 . 00 . 00 . 00 . 00 . 00 ~ 02 . 00 . 00 # 66 # 64 # 64 # 64 # 64 # 64 # 65 . 00 ~ 02 . 00 . 16 # 17 . 16 . 16 . 16 . 16 . 16 . 16 . 16 . 16 . 16
; 05 # 55 # 71 # 71 # 67 . 00 ! 01 . 00 ~ 02 . 00 . 57 . 56 ; 04 ; 05 . 00 . 00 . 00 ~ 02 # 55 # 71 # 71 # 71 # 71 # 67 . 00 . 00 . 00 . 00 . 00 # 38 # 36 # 36 # 36 # 36 # 36 # 36 # 37 . 00 . 00 . 00 . 00 . 00 . 00 ~ 02 . 00 . 00 ~ 02 . 00 . 00 . 00 . 00 . 00 . 00 ; 04 . 00 . 00 . 00 . 00 ! 01 # 70 # 68 # 68 # 68 # 68 # 68 # 69 . 00 . 00 . 00 . 16 . 93 . 16 . 16 . 16 . 16 . 16 . 16 . 16 . 16 . 16
~ 02 # 55 # 71 # 71 # 67 . 00 . 00 . 00 . 00 . 00 . 57 . 56 . 00 ! 01 ! 01 . 00 . 00 . 00 # 55 # 71 # 71 # 71 # 71 # 67 . 00 . 00 . 16 . 16 . 16 # 39 # 51 # 51 # 51 # 51 # 51 # 51 # 35 . 00 ~ 02 . 00 . 00 . 00 . 00 . 00 . 00 ! 01 . 00 . 00 . 00 . 00 . 00 . 00 ; 05 . 00 . 00 ~ 02 . 00 . 00 # 38 # 36 # 36 # 36 # 36 # 36 # 36 # 36 # 36 # 37 . 00 . 16 . 16 . 16 . 16 . 16 . 16 . 16 . 16 . 16 . 16 . 16
# 54 # 71 # 71 # 71 # 71 # 52 # 52 # 52 # 53 . 00 . 57 . 56 ; 04 ~ 02 . 00 ~ 02 . 00 . 00 # 66 # 64 # 64 # 64 # 64 # 65 ~ 02 . 00 . 16 # 17 . 16 # 39 # 51 # 51 # 51 # 51 # 51 # 51 # 35 . 00 . 00 ~ 02 . 00 . 00 . 00 . 00 ! 01 ! 01 . 00 . 00 . 00 . 00 . 00 . 00 ; 04 . 00 . 00 . 00 . 00 ! 01 # 39 # 51 # 51 # 51 # 51 # 51 # 51 # 51 # 51 # 35 . 00 . 00 . 16 . 16 . 16 # 17 . 16 . 16 . 16 . 16 . 16 . 00
# 55 # 71 # 71 # 71 # 71 # 71 # 71 # 71 # 67 . 00 . 57 . 56 ; 04 ~ 02 . 00 . 00 + 20 ; 04 # 70 # 68 # 68 # 68 # 68 # 69 . 00 . 00 # 17 . 16 . 16 # 39 # 51 # 51 # 51 # 51 # 51 # 51 # 35 ; 04 . 00 . 00 . 00 # 54 # 52 # 52 # 53 . 00 ! 01 . 00 . 00 . 00 . 00 . 00 . 00 . 00 . 00 . 00 . 00 ; 04 # 39 # 51 # 51 # 51 # 51 # 51 # 51 # 51 # 51 # 35 . 00 . 00 . 16 . 16 . 16 . 16 . 16 . 16 . 16 . 16 . 00 . 00
# 55 # 71 # 71 # 71 # 71 # 71 # 71 # 71 # 67 ; 04 . 57 . 56 . 00 . 00 ~ 02 ! 01 . 00 ; 05 . 00 . 00 . 00 . 00 ! 01 . 00 . 00 . 00 . 16 . 16 # 17 # 39 # 51 # 51 # 51 # 51 # 51 # 51 # 35 . 00 ; 05 . 00 . 00 # 55 # 71 # 71 # 67 . 00 ! 01 . 00 ~ 02 ~ 02 . 00 ~ 02 . 00 . 00 . 00 ; 04 ; 05 . 00 # 39 # 51 # 51 # 51 # 51 # 51 # 51 # 51 # 51 # 35 . 00 . 00 . 00 . 16 . 16 . 16 . 16 # 17 . 16 . 16 . 00 . 00
# 55 # 71 # 71 # 71 # 71 # 71 # 71 # 71 # 67 . 00 ; 77 ; 76 ; 04 . 00 . 00 . 00 ; 05 ; 04 . 00 ! 01 ~ 02 . 00 . 00 . 00 . 00 . 00 ~ 02 . 00 . 00 # 34 # 32 # 32 # 32 # 32 # 32 # 32 # 33 . 00 ; 04 ; 04 ; 05 # 55 # 71 # 71 # 67 . 00 ! 01 . 00 . 00 . 00 . 00 . 00 ! 01 . 00 ; 05 ; 04 ! 01 ; 05 # 39 # 51 # 51 # 51 # 51 # 51 # 51 # 51 # 51 # 35 . 00 . 00 . 00 . 00 . 16 . 16 . 16 . 16 . 16 . 00 . 00 . 00
# 66 # 64 # 64 # 64 # 64 # 64 # 64 # 64 # 65 ! 01 . 57 . 56 ; 04 ; 04 # 38 # 36 # 36 # 36 # 36 # 37 . 00 . 00 ! 01 ~ 02 . 00 # 54 # 52 # 52 # 52 # 52 # 52 # 52 # 52 # 53 . 00 . 00 ; 04 . 00 . 00 . 00 . 00 # 55 # 71 # 71 # 67 # 38 # 36 # 36 # 36 # 36 # 37 ; 04 ; 05 ; 04 ! 01 ! 01 ; 05 . 00 # 34 # 32 # 32 # 32 # 32 # 32 # 32 # 32 # 32 # 33 . 00 . 00 . 00 . 00 . 00 . 00 . 00 . 00 . 00 . 00 . 00 . 00
71 7
21
1 54 7 4
0 54 13 6
1 60 20 4
1 57 22 4
0 51 31 6
1 49 36 4
1 44 33 4
1 41 21 4
0 40 14 6
1 36 3 4
1 12 13 4
1 5 6 4
1 28 19 4
0 13 15 6
2 15 19 2
2 33 13 2
2 13 28 2
1 4 17 4
0 12 30 6
0 10 31 6
1 12 38 4
3
71 7 Tu dois aller à ton examen final dans\le bâtiment Baun Nott.
57 8 Carte du campus :\Pour aller au bâtiment Baun Nott,\il faut suivre cette route.
53 18 Le bâtiment est par là mais la route\est bloquée, il faut contourner\ces bâtiments.
